…
```r
as.Date(Q1$date) -> Q1$date

tbl_df(Q1) -> Q1

Q1
```

```
## # A tibble: 17,568 x 3
##    steps date       interval
##    <int> <date>        <int>
##  1    NA 2012-10-01        0
##  2    NA 2012-10-01        5
##  3    NA 2012-10-01       10
##  4    NA 2012-10-01       15
##  5    NA 2012-10-01       20
##  6    NA 2012-10-01       25
##  7    NA 2012-10-01       30
##  8    NA 2012-10-01       35
##  9    NA 2012-10-01       40
## 10    NA 2012-10-01       45
## # … with 17,558 more rows
```
…
The third part is to find mean and median of Q1 steps, which might be an easiest part to code.


```r
Q1 %>% group_by(date) %>%
  summarise(mean(steps, na.rm = TRUE))
```

```
## # A tibble: 61 x 2
##    date       `mean(steps, na.rm = TRUE)`
##    <date>                           <dbl>
##  1 2012-10-01                     NaN    
##  2 2012-10-02                       0.438
##  3 2012-10-03                      39.4  
##  4 2012-10-04                      42.1  
##  5 2012-10-05                      46.2  
##  6 2012-10-06                      53.5  
##  7 2012-10-07                      38.2  
##  8 2012-10-08                     NaN    
##  9 2012-10-09                      44.5  
## 10 2012-10-10                      34.4  
## # … with 51 more rows
```
…
```
## # A tibble: 1 x 1
##   `mean(steps, na.rm = TRUE)`
##                         <dbl>
## 1                        37.4
```

```r
Q1 %>% group_by(date) %>%
  summarise(median(steps, na.rm = TRUE))
```

```
## # A tibble: 61 x 2
##    date       `median(steps, na.rm = TRUE)`
##    <date>                             <dbl>
##  1 2012-10-01                            NA
##  2 2012-10-02                             0
##  3 2012-10-03                             0
##  4 2012-10-04                             0
##  5 2012-10-05                             0
##  6 2012-10-06                             0
##  7 2012-10-07                             0
##  8 2012-10-08                            NA
##  9 2012-10-09                             0
## 10 2012-10-10                             0
## # … with 51 more rows
```
…
```r
Q2 %>% group_by(date) %>%
  summarise(mean(steps))
```

```
## # A tibble: 61 x 2
##    date       `mean(steps)`
##    <date>             <dbl>
##  1 2012-10-01        37.4  
##  2 2012-10-02         0.438
##  3 2012-10-03        39.4  
##  4 2012-10-04        42.1  
##  5 2012-10-05        46.2  
##  6 2012-10-06        53.5  
##  7 2012-10-07        38.2  
##  8 2012-10-08        37.4  
##  9 2012-10-09        44.5  
## 10 2012-10-10        34.4  
## # … with 51 more rows
```
…
```
## # A tibble: 1 x 1
##   `mean(steps)`
##           <dbl>
## 1          37.4
```

```r
Q2 %>% group_by(date) %>%
  summarise(median(steps))
```

```
## # A tibble: 61 x 2
##    date       `median(steps)`
##    <date>               <dbl>
##  1 2012-10-01            37.4
##  2 2012-10-02             0  
##  3 2012-10-03             0  
##  4 2012-10-04             0  
##  5 2012-10-05             0  
##  6 2012-10-06             0  
##  7 2012-10-07             0  
##  8 2012-10-08            37.4
##  9 2012-10-09             0  
## 10 2012-10-10             0  
## # … with 51 more rows
```
…
